…
    ## isBankrupted   Predictor4   Predictor6  Predictor11  Predictor19  Predictor23 
    ##            0            6            0            0           13           13 
    ##  Predictor29  Predictor33  Predictor34  Predictor41  Predictor63 
    ##            0            6            4           28            6

``` r
data_clean <- drop_na(data)

data_clean
```

    ## # A tibble: 1,955 × 11
    ##    isBankrupted Predictor4 Predictor6 Predictor11 Predictor19 Predictor23
    ##           <int>      <dbl>      <dbl>       <dbl>       <dbl>       <dbl>
    ##  1            0      0.406      0.338     0.156       0.243      0.195   
    ##  2            1      0.134     -4.97     -0.460      -0.246     -0.246   
    ##  3            0      0.853      0         0.113       0.0280     0.0280  
    ##  4            1      1.54      -0.197    -0.171      -0.155     -0.179   
    ##  5            0      1.65       0         0.653       0.267      0.271   
    ##  6            0      0.992      0.119     0.00203     0.00179    0.000878
    ##  7            0      3.11       0         0.0839      0.0200     0.0200  
    ##  8            0      1.04       0.335     0.174       0.0852     0.0683  
    ##  9            0      2.34       0.207     0.128       0.134      0.106   
    ## 10            0      3.30       0.696     0.404       0.0968     0.0788  
    ## # ℹ 1,945 more rows
    ## # ℹ 5 more variables: Predictor29 <dbl>, Predictor33 <dbl>, Predictor34 <dbl>,
    ## #   Predictor41 <dbl>, Predictor63 <dbl>
…
