…
``` r
x11_dcmp
```

    ## # A dable: 465 x 7 [1M]
    ## # Key:     .model [1]
    ## # :        y = trend * seasonal * irregular
    ##    .model    Month     y trend seasonal irregular season_adjust
    ##    <chr>     <mth> <dbl> <dbl>    <dbl>     <dbl>         <dbl>
    ##  1 x11    1982 Apr  303.  307.    0.987     0.999          307.
    ##  2 x11    1982 May  298.  307.    0.970     0.998          307.
    ##  3 x11    1982 Jun  298   308.    0.960     1.01           310.
    ##  4 x11    1982 Jul  308.  309.    0.991     1.00           311.
    ##  5 x11    1982 Aug  299.  311.    0.982     0.980          305.
    ##  6 x11    1982 Sep  305.  313.    0.967     1.01           316.
    ##  7 x11    1982 Oct  318   317.    1.02      0.983          312.
    ##  8 x11    1982 Nov  334.  322.    1.03      1.01           326.
    ##  9 x11    1982 Dec  390.  326.    1.20      0.999          326.
    ## 10 x11    1983 Jan  311.  330.    0.985     0.958          316.
    ## # ℹ 455 more rows
…
``` r
#Training sets

train <- my_series |> 
  slice(1:441)

train
```

    ## # A tsibble: 441 x 2 [1M]
    ##       Month     y
    ##       <mth> <dbl>
    ##  1 1982 Apr  303.
    ##  2 1982 May  298.
    ##  3 1982 Jun  298 
    ##  4 1982 Jul  308.
    ##  5 1982 Aug  299.
    ##  6 1982 Sep  305.
    ##  7 1982 Oct  318 
    ##  8 1982 Nov  334.
    ##  9 1982 Dec  390.
    ## 10 1983 Jan  311.
    ## # ℹ 431 more rows

``` r
#Test Sets

test <- my_series |> 
  slice(442:nrow(my_series))

test
```

    ## # A tsibble: 24 x 2 [1M]
    ##       Month     y
    ##       <mth> <dbl>
    ##  1 2019 Jan 2937.
    ##  2 2019 Feb 2691.
    ##  3 2019 Mar 2952.
    ##  4 2019 Apr 2796.
    ##  5 2019 May 2836.
    ##  6 2019 Jun 2745.
    ##  7 2019 Jul 2784.
    ##  8 2019 Aug 2888 
    ##  9 2019 Sep 2797.
    ## 10 2019 Oct 2955.
    ## # ℹ 14 more rows
…
